F:\pizzaguui\src\main\java\org\pizzagui\App.java
F:\pizzaguui\src\main\java\org\pizzagui\Controller.java
F:\pizzaguui\src\main\java\module-info.java
F:\pizzaguui\src\main\java\org\pizzagui\Offers.java
F:\pizzaguui\src\main\java\org\pizzagui\Cart.java
F:\pizzaguui\src\main\java\org\pizzagui\Drinks.java
F:\pizzaguui\src\main\java\org\pizzagui\Foods.java
